{
    "page": 1,
    "limit": 36,
    "explicit": false,
    "total": 1000,
    "has_more": true,
    "list": [
      {
        "id": "x9jydlq",
        "title": "Shin Godzilla - Trailer zum Monster-Film von Hideaki Anno",
        "channel": "videogames",
        "thumbnail_480_url": "https:\/\/s1.dmcdn.net\/v\/YRp1U1eBvpRJYo3ZC\/x480",
        "url": "https:\/\/www.dailymotion.com\/video\/x9jydlq",
        "owner.screenname": "MeinMMO",
        "views_total": 29807,
        "duration": 83
      },
      {
        "id": "x9jylxc",
        "title": "Fantasy Life i: Launch-Trailer feiert den Release und stellt die Highlights der vielen Features vor",
        "channel": "videogames",
        "thumbnail_480_url": "https:\/\/s1.dmcdn.net\/v\/YRrg01eDm9cEAAOET\/x480",
        "url": "https:\/\/www.dailymotion.com\/video\/x9jylxc",
        "owner.screenname": "GamePro",
        "views_total": 13176,
        "duration": 60
      },
      {
        "id": "x9kdpys",
        "title": "Elden Ring Nightreign im Test: Regen mit Aussicht auf Besserung",
        "channel": "videogames",
        "thumbnail_480_url": "https:\/\/s1.dmcdn.net\/v\/YUXoq1eE6TduMHVU9\/x480",
        "url": "https:\/\/www.dailymotion.com\/video\/x9kdpys",
        "owner.screenname": "GameStar",
        "views_total": 9479,
        "duration": 628
      },
      {
        "id": "x9ka556",
        "title": "Frau überrascht ihren Golden Retriever: Ein Wiedersehen voller Emotionen",
        "channel": "animals",
        "thumbnail_480_url": "https:\/\/s2.dmcdn.net\/v\/YTv2A1eE0jnyNEWfd\/x480",
        "url": "https:\/\/www.dailymotion.com\/video\/x9ka556",
        "owner.screenname": "Wamiz Deutschland",
        "views_total": 10735,
        "duration": 38
      },
      {
        "id": "x9kdvv2",
        "title": "Good Fortune - Trailer (English) HD",
        "channel": "shortfilms",
        "thumbnail_480_url": "https:\/\/s2.dmcdn.net\/v\/YUZgE1eE6vkTTcoIS\/x480",
        "url": "https:\/\/www.dailymotion.com\/video\/x9kdvv2",
        "owner.screenname": "Moviepilot",
        "views_total": 6751,
        "duration": 66
      },
      {
        "id": "x9k9zoa",
        "title": "Pokémon GO: Teaser zur neuen Season",
        "channel": "videogames",
        "thumbnail_480_url": "https:\/\/s2.dmcdn.net\/v\/YTtJQ1eDg3VQONJCt\/x480",
        "url": "https:\/\/www.dailymotion.com\/video\/x9k9zoa",
        "owner.screenname": "MeinMMO",
        "views_total": 12428,
        "duration": 10
      },
      {
        "id": "x9kcng6",
        "title": "Anno 117 im Detail-Vergleich: Besser als die Lieblinge 1800 und 1404? Alle Unterschiede!",
        "channel": "videogames",
        "thumbnail_480_url": "https:\/\/s2.dmcdn.net\/v\/YULcs1eD-D6WpbJUZ\/x480",
        "url": "https:\/\/www.dailymotion.com\/video\/x9kcng6",
        "owner.screenname": "GameStar",
        "views_total": 6365,
        "duration": 797
      },
      {
        "id": "x9k8dfk",
        "title": "In der Open World vom Polizei-GTA The Precinct sind wir das Gesetz!",
        "channel": "videogames",
        "thumbnail_480_url": "https:\/\/s1.dmcdn.net\/v\/YTau01eDX45QNt9b-\/x480",
        "url": "https:\/\/www.dailymotion.com\/video\/x9k8dfk",
        "owner.screenname": "GameStar",
        "views_total": 13760,
        "duration": 500
      },
      {
        "id": "x9jw85g",
        "title": "Maurice wollte nach seinen ersten 10 Stunden Anno 117 gar nicht mehr aufhören – sein erstes Fazit",
        "channel": "videogames",
        "thumbnail_480_url": "https:\/\/s1.dmcdn.net\/v\/YRQX41eD8NjLW5O20\/x480",
        "url": "https:\/\/www.dailymotion.com\/video\/x9jw85g",
        "owner.screenname": "GameStar",
        "views_total": 23914,
        "duration": 1708
      },
      {
        "id": "x9k0ymc",
        "title": "Ottfried Fischer über seine Parkinson-Erkrankung: Gewisse Dinge sind nicht mehr möglich",
        "channel": "tv",
        "thumbnail_480_url": "https:\/\/s2.dmcdn.net\/v\/YSGT41eCaqHkU8mXn\/x480",
        "url": "https:\/\/www.dailymotion.com\/video\/x9k0ymc",
        "owner.screenname": "OhMyMag DE",
        "views_total": 33324,
        "duration": 69
      },
      {
        "id": "x9kcl9u",
        "title": "Der Launch Trailer zu Elden Ring: Nightreign zeigt atmosphärische Szenen und Bosskämpfe",
        "channel": "videogames",
        "thumbnail_480_url": "https:\/\/s1.dmcdn.net\/v\/YUKwo1eDzIHG2iSN4\/x480",
        "url": "https:\/\/www.dailymotion.com\/video\/x9kcl9u",
        "owner.screenname": "MeinMMO",
        "views_total": 4690,
        "duration": 117
      },
      {
        "id": "x9kcksw",
        "title": "Erste Hitze des Jahres- Experte: Das sind die schönsten Tage vom langen Wochenende in Deutschland!",
        "channel": "news",
        "thumbnail_480_url": "https:\/\/s2.dmcdn.net\/v\/YUKnG1eE18wewWKu7\/x480",
        "url": "https:\/\/www.dailymotion.com\/video\/x9kcksw",
        "owner.screenname": "Meteored Deutschland",
        "views_total": 7237,
        "duration": 49
      },
      {
        "id": "x9jvsz2",
        "title": "Ein unheimliches Wesen am Strand in Mittelamerika gesichtet",
        "channel": "animals",
        "thumbnail_480_url": "https:\/\/s2.dmcdn.net\/v\/YRLjk1eDP7rFnaLcT\/x480",
        "url": "https:\/\/www.dailymotion.com\/video\/x9jvsz2",
        "owner.screenname": "Wamiz Deutschland",
        "views_total": 89789,
        "duration": 17
      },
      {
        "id": "x9k9zxk",
        "title": "The Seventh Curse Trailer OmeU",
        "channel": "shortfilms",
        "thumbnail_480_url": "https:\/\/s2.dmcdn.net\/v\/YTtOe1eDfVdYlRo2w\/x480",
        "url": "https:\/\/www.dailymotion.com\/video\/x9k9zxk",
        "owner.screenname": "FILMSTARTS",
        "views_total": 18400,
        "duration": 230
      },
      {
        "id": "x9kd2ho",
        "title": "Nintendo bringt ein großes Update für N64-Spiele, aber das beste Feature kriegen nur Switch-2-Käufer",
        "channel": "videogames",
        "thumbnail_480_url": "https:\/\/s1.dmcdn.net\/v\/YUQNS1eE0xOmiL-Ek\/x480",
        "url": "https:\/\/www.dailymotion.com\/video\/x9kd2ho",
        "owner.screenname": "GamePro",
        "views_total": 3274,
        "duration": 90
      },
      {
        "id": "x9kfj42",
        "title": "Erste Hitze des Jahres- Experte: Das sind die schönsten Tage vom langen Wochenende in Deutschland!",
        "channel": "news",
        "thumbnail_480_url": "https:\/\/s1.dmcdn.net\/v\/YUsQ21eE59cMYTITD\/x480",
        "url": "https:\/\/www.dailymotion.com\/video\/x9kfj42",
        "owner.screenname": "Meteored Deutschland",
        "views_total": 2527,
        "duration": 49
      },
      {
        "id": "x9ke1yg",
        "title": "[Witanime.com] SNONNJWNWS EP 09 FHD",
        "channel": "fun",
        "thumbnail_480_url": "https:\/\/s1.dmcdn.net\/v\/YUbbe1eE87zrrdvL6\/x480",
        "url": "https:\/\/www.dailymotion.com\/video\/x9ke1yg",
        "owner.screenname": "TVOP",
        "views_total": 2764,
        "duration": 1370
      },
      {
        "id": "x9joe7i",
        "title": "Ein Fallout 3 Remaster könnte mit diesen 10 Verbesserungen zum perfekten RPG werden",
        "channel": "videogames",
        "thumbnail_480_url": "https:\/\/s2.dmcdn.net\/v\/YQ1Jk1eCNo0OamgEq\/x480",
        "url": "https:\/\/www.dailymotion.com\/video\/x9joe7i",
        "owner.screenname": "GameStar",
        "views_total": 35231,
        "duration": 969
      },
      {
        "id": "x9kd4kq",
        "title": "Ab sofort gibt's mit Small Spaces ein cooles, kleines Einrichtungs-Highlight, auch für Sims-Fans",
        "channel": "videogames",
        "thumbnail_480_url": "https:\/\/s2.dmcdn.net\/v\/YUR1g1eE2RjogdErs\/x480",
        "url": "https:\/\/www.dailymotion.com\/video\/x9kd4kq",
        "owner.screenname": "GamePro",
        "views_total": 2537,
        "duration": 108
      },
      {
        "id": "x9kdumi",
        "title": "Präsidentschaftswahl in Polen: Am Sonntag wählen auch die Polen in Deutschland",
        "channel": "news",
        "thumbnail_480_url": "https:\/\/s1.dmcdn.net\/v\/YUZHA1eE3BmlAGylt\/x480",
        "url": "https:\/\/www.dailymotion.com\/video\/x9kdumi",
        "owner.screenname": "DW (Deutsch)",
        "views_total": 2914,
        "duration": 234
      },
      {
        "id": "x9kd03u",
        "title": "Zenless Zone Zero zeigt im Gameplay-Trailer zu Season 2 die drei neuen Agenten in Aktion",
        "channel": "videogames",
        "thumbnail_480_url": "https:\/\/s2.dmcdn.net\/v\/YUPdA1eDwzbHJm6nJ\/x480",
        "url": "https:\/\/www.dailymotion.com\/video\/x9kd03u",
        "owner.screenname": "GamePro",
        "views_total": 2280,
        "duration": 430
      },
      {
        "id": "x9jykz2",
        "title": "Der Trailer zur 4. Season von Call of Duty: Warzone und Black Ops 6 zeigt, was ihr alles erwarten könnt",
        "channel": "videogames",
        "thumbnail_480_url": "https:\/\/s2.dmcdn.net\/v\/YRrMk1eBuNzk58j4e\/x480",
        "url": "https:\/\/www.dailymotion.com\/video\/x9jykz2",
        "owner.screenname": "MeinMMO",
        "views_total": 5548,
        "duration": 118
      },
      {
        "id": "x9k4qr6",
        "title": "Hier und da ein paar Schauer: der große Landregen gegen die Dürre ist das nicht!",
        "channel": "news",
        "thumbnail_480_url": "https:\/\/s2.dmcdn.net\/v\/YSxXo1eDDKq_jujw5\/x480",
        "url": "https:\/\/www.dailymotion.com\/video\/x9k4qr6",
        "owner.screenname": "Meteored Deutschland",
        "views_total": 70976,
        "duration": 18
      },
      {
        "id": "x9kea0o",
        "title": "Israel meldet Tod von mutmaßlichem Hamas-Chef",
        "channel": "news",
        "thumbnail_480_url": "https:\/\/s2.dmcdn.net\/v\/YUe8u1eE9tSzfUYvv\/x480",
        "url": "https:\/\/www.dailymotion.com\/video\/x9kea0o",
        "owner.screenname": "AFP Deutsch",
        "views_total": 1565,
        "duration": 60
      },
      {
        "id": "x9kaqpy",
        "title": "NBA2K 25 zeigt erstes Gameplay und stellt Neuerungen vor",
        "channel": "videogames",
        "thumbnail_480_url": "https:\/\/s1.dmcdn.net\/v\/YT_t61eDlMLnXegbO\/x480",
        "url": "https:\/\/www.dailymotion.com\/video\/x9kaqpy",
        "owner.screenname": "GamePro",
        "views_total": 7772,
        "duration": 118
      },
      {
        "id": "x9kb30s",
        "title": "Starfield: In der Fan-Erweiterung Watchtower entführt uns eine mächtige Geheimorganisation",
        "channel": "videogames",
        "thumbnail_480_url": "https:\/\/s1.dmcdn.net\/v\/YU3mC1eDmbF_e-p2Y\/x480",
        "url": "https:\/\/www.dailymotion.com\/video\/x9kb30s",
        "owner.screenname": "GameStar",
        "views_total": 5539,
        "duration": 1191
      },
      {
        "id": "x9kcswg",
        "title": "Der neue Trailer zum Event „Hall of Legends” von 2025 in League of Legends",
        "channel": "videogames",
        "thumbnail_480_url": "https:\/\/s2.dmcdn.net\/v\/YUNLG1eD_NmAFVH3S\/x480",
        "url": "https:\/\/www.dailymotion.com\/video\/x9kcswg",
        "owner.screenname": "MeinMMO",
        "views_total": 1741,
        "duration": 167
      },
      {
        "id": "x9katbi",
        "title": "Netflix hat endlich einen ersten Teaser für die zweite Staffel von One Piece veröffentlicht",
        "channel": "videogames",
        "thumbnail_480_url": "https:\/\/s1.dmcdn.net\/v\/YU0hk1eDljqUR4Chq\/x480",
        "url": "https:\/\/www.dailymotion.com\/video\/x9katbi",
        "owner.screenname": "MeinMMO",
        "views_total": 5545,
        "duration": 118
      },
      {
        "id": "x9kaydm",
        "title": "Die Macher einer Shooter-Sensation wollen euch in ihrem nächsten Spiel Albträume bescheren",
        "channel": "videogames",
        "thumbnail_480_url": "https:\/\/s1.dmcdn.net\/v\/YU2IA1eDmrcCpU4hW\/x480",
        "url": "https:\/\/www.dailymotion.com\/video\/x9kaydm",
        "owner.screenname": "GameStar",
        "views_total": 3428,
        "duration": 96
      },
      {
        "id": "x9k15hw",
        "title": "Call of Duty Black Ops 6 & Warzone: Season 4-Trailer stimmt auf die neuen Inhalte ein",
        "channel": "videogames",
        "thumbnail_480_url": "https:\/\/s2.dmcdn.net\/v\/YSIeK1eCbf-cRpRpf\/x480",
        "url": "https:\/\/www.dailymotion.com\/video\/x9k15hw",
        "owner.screenname": "GamePro",
        "views_total": 14746,
        "duration": 118
      },
      {
        "id": "x9k80xm",
        "title": "Wir entschlüsseln die Geheimnisse von GTA 6",
        "channel": "videogames",
        "thumbnail_480_url": "https:\/\/s2.dmcdn.net\/v\/YTWww1eE1G07OJL_W\/x480",
        "url": "https:\/\/www.dailymotion.com\/video\/x9k80xm",
        "owner.screenname": "GameStar",
        "views_total": 2316,
        "duration": 4909
      },
      {
        "id": "x9kdwi4",
        "title": "Good Fortune - Trailer (Deutsch) HD",
        "channel": "shortfilms",
        "thumbnail_480_url": "https:\/\/s1.dmcdn.net\/v\/YUZtC1eE6_OERxTRs\/x480",
        "url": "https:\/\/www.dailymotion.com\/video\/x9kdwi4",
        "owner.screenname": "Moviepilot",
        "views_total": 1410,
        "duration": 81
      },
      {
        "id": "x9kb0a6",
        "title": "One Piece: Erster Teaser für Staffel 2 der Netflix-Serie zeigt schon den neuen Look der Strohhüte",
        "channel": "videogames",
        "thumbnail_480_url": "https:\/\/s1.dmcdn.net\/v\/YU2uk1eDk8s-0Ap5h\/x480",
        "url": "https:\/\/www.dailymotion.com\/video\/x9kb0a6",
        "owner.screenname": "GamePro",
        "views_total": 4710,
        "duration": 118
      },
      {
        "id": "x9kagrg",
        "title": "Saturnine-Rüstung ist das härteste, was Space Marines in Warhammer 40.000 zu biete haben - Was ist das?",
        "channel": "videogames",
        "thumbnail_480_url": "https:\/\/s2.dmcdn.net\/v\/YTyjS1eDlCi44IgJY\/x480",
        "url": "https:\/\/www.dailymotion.com\/video\/x9kagrg",
        "owner.screenname": "MeinMMO",
        "views_total": 4579,
        "duration": 105
      },
      {
        "id": "x9kdi0a",
        "title": "Earthborne Rangers: Die Entwickler erklären im Trailer ihr Open-World-Brettspiel",
        "channel": "videogames",
        "thumbnail_480_url": "https:\/\/s1.dmcdn.net\/v\/YUVHg1eE5McLjlJ-2\/x480",
        "url": "https:\/\/www.dailymotion.com\/video\/x9kdi0a",
        "owner.screenname": "GameStar",
        "views_total": 1018,
        "duration": 127
      },
      {
        "id": "x9kb1r2",
        "title": "Dieses Rennspiel will es mit Mario Kart World aufnehmen und schickt euch dafür durch ganz Europa",
        "channel": "videogames",
        "thumbnail_480_url": "https:\/\/s2.dmcdn.net\/v\/YU3MU1eDmMWPab2xx\/x480",
        "url": "https:\/\/www.dailymotion.com\/video\/x9kb1r2",
        "owner.screenname": "GamePro",
        "views_total": 5941,
        "duration": 92
      }
    ]
  }